%YAML 1.1
%TAG !u! tag:unity3d.com,2011:
--- !u!1045 &1
EditorBuildSettings:
  m_ObjectHideFlags: 0
  serializedVersion: 2
  m_Scenes:
  - enabled: 0
    path: Assets/Scenes/FaceTracking/ARCoreFaceRegions.unity
    guid: d1739ac106ca65e4b83528a440314bd9
  - enabled: 1
    path: Assets/Scenes/FaceTracking/FacePose.unity
    guid: d8b65509a10894e1dbb93c799ececfd9
  m_configObjects:
    com.unity.xr.arcore.PlayerSettings: {fileID: 11400000, guid: 0f97598024e20a644babec7a062a9965,
      type: 2}
    com.unity.xr.arkit.PlayerSettings: {fileID: 11400000, guid: 1d8b29da090c52043bcecd0ed94b4307,
      type: 2}
    com.unity.xr.management.arcore_loader: {fileID: 11400000, guid: 95ef8f366d6d2bf429fa67213fe58bda,
      type: 2}
    com.unity.xr.management.arkit_loader: {fileID: 11400000, guid: 1990fffc10dd23f488a01de487448adf,
      type: 2}
    com.unity.xr.management.loader_settings: {fileID: 11400000, guid: 0c55e2d352300cd45aadc997201b5345,
      type: 2}
